ISO-10303-21;
HEADER;
/* Generated by software containing ST-Developer
 * from STEP Tools, Inc. (www.steptools.com) 
 */

FILE_DESCRIPTION(
/* description */ (''),
/* implementation_level */ '2;1');

FILE_NAME(
/* name */ 'flow conditioner housing.step',
/* time_stamp */ '2024-03-06T20:30:05-05:00',
/* author */ (''),
/* organization */ (''),
/* preprocessor_version */ 'ST-DEVELOPER v20',
/* originating_system */ 'Autodesk Translation Framework v12.20.1.177',

/* authorisation */ '');

FILE_SCHEMA (('AUTOMOTIVE_DESIGN { 1 0 10303 214 3 1 1 }'));
ENDSEC;

DATA;
#10=MECHANICAL_DESIGN_GEOMETRIC_PRESENTATION_REPRESENTATION('',(#13),#683);
#11=SHAPE_REPRESENTATION_RELATIONSHIP('SRR','None',#690,#12);
#12=ADVANCED_BREP_SHAPE_REPRESENTATION('',(#14),#682);
#13=STYLED_ITEM('',(#700),#14);
#14=MANIFOLD_SOLID_BREP('Body1',#391);
#15=FACE_BOUND('',#69,.T.);
#16=FACE_BOUND('',#72,.T.);
#17=FACE_BOUND('',#75,.T.);
#18=FACE_BOUND('',#83,.T.);
#19=FACE_BOUND('',#88,.T.);
#20=FACE_BOUND('',#91,.T.);
#21=FACE_BOUND('',#97,.T.);
#22=PLANE('',#410);
#23=PLANE('',#414);
#24=PLANE('',#419);
#25=PLANE('',#434);
#26=PLANE('',#435);
#27=PLANE('',#436);
#28=PLANE('',#437);
#29=PLANE('',#438);
#30=PLANE('',#442);
#31=PLANE('',#446);
#32=PLANE('',#447);
#33=PLANE('',#448);
#34=PLANE('',#449);
#35=CYLINDRICAL_SURFACE('',#408,10.9);
#36=CYLINDRICAL_SURFACE('',#421,10.9);
#37=CYLINDRICAL_SURFACE('',#426,8.95437136880563);
#38=CYLINDRICAL_SURFACE('',#432,7.9);
#39=CYLINDRICAL_SURFACE('',#440,7.5);
#40=CYLINDRICAL_SURFACE('',#444,7.342);
#41=FACE_OUTER_BOUND('',#66,.T.);
#42=FACE_OUTER_BOUND('',#67,.T.);
#43=FACE_OUTER_BOUND('',#68,.T.);
#44=FACE_OUTER_BOUND('',#70,.T.);
#45=FACE_OUTER_BOUND('',#71,.T.);
#46=FACE_OUTER_BOUND('',#73,.T.);
#47=FACE_OUTER_BOUND('',#74,.T.);
#48=FACE_OUTER_BOUND('',#76,.T.);
#49=FACE_OUTER_BOUND('',#77,.T.);
#50=FACE_OUTER_BOUND('',#78,.T.);
#51=FACE_OUTER_BOUND('',#79,.T.);
#52=FACE_OUTER_BOUND('',#80,.T.);
#53=FACE_OUTER_BOUND('',#81,.T.);
#54=FACE_OUTER_BOUND('',#82,.T.);
#55=FACE_OUTER_BOUND('',#84,.T.);
#56=FACE_OUTER_BOUND('',#85,.T.);
#57=FACE_OUTER_BOUND('',#86,.T.);
#58=FACE_OUTER_BOUND('',#87,.T.);
#59=FACE_OUTER_BOUND('',#89,.T.);
#60=FACE_OUTER_BOUND('',#90,.T.);
#61=FACE_OUTER_BOUND('',#92,.T.);
#62=FACE_OUTER_BOUND('',#93,.T.);
#63=FACE_OUTER_BOUND('',#94,.T.);
#64=FACE_OUTER_BOUND('',#95,.T.);
#65=FACE_OUTER_BOUND('',#96,.T.);
#66=EDGE_LOOP('',(#260,#261,#262,#263));
#67=EDGE_LOOP('',(#264,#265,#266,#267));
#68=EDGE_LOOP('',(#268));
#69=EDGE_LOOP('',(#269));
#70=EDGE_LOOP('',(#270,#271,#272,#273));
#71=EDGE_LOOP('',(#274));
#72=EDGE_LOOP('',(#275));
#73=EDGE_LOOP('',(#276,#277,#278,#279));
#74=EDGE_LOOP('',(#280));
#75=EDGE_LOOP('',(#281));
#76=EDGE_LOOP('',(#282,#283,#284,#285));
#77=EDGE_LOOP('',(#286,#287,#288,#289,#290));
#78=EDGE_LOOP('',(#291,#292,#293,#294,#295,#296));
#79=EDGE_LOOP('',(#297,#298,#299,#300,#301));
#80=EDGE_LOOP('',(#302,#303,#304,#305));
#81=EDGE_LOOP('',(#306,#307,#308,#309));
#82=EDGE_LOOP('',(#310,#311,#312,#313,#314,#315));
#83=EDGE_LOOP('',(#316));
#84=EDGE_LOOP('',(#317,#318,#319,#320));
#85=EDGE_LOOP('',(#321,#322,#323,#324));
#86=EDGE_LOOP('',(#325,#326,#327,#328));
#87=EDGE_LOOP('',(#329));
#88=EDGE_LOOP('',(#330));
#89=EDGE_LOOP('',(#331,#332,#333,#334));
#90=EDGE_LOOP('',(#335));
#91=EDGE_LOOP('',(#336));
#92=EDGE_LOOP('',(#337,#338,#339,#340));
#93=EDGE_LOOP('',(#341,#342,#343,#344));
#94=EDGE_LOOP('',(#345,#346,#347,#348));
#95=EDGE_LOOP('',(#349,#350,#351,#352));
#96=EDGE_LOOP('',(#353,#354,#355,#356,#357,#358));
#97=EDGE_LOOP('',(#359));
#98=LINE('',#577,#128);
#99=LINE('',#581,#129);
#100=LINE('',#588,#130);
#101=LINE('',#597,#131);
#102=LINE('',#604,#132);
#103=LINE('',#611,#133);
#104=LINE('',#614,#134);
#105=LINE('',#619,#135);
#106=LINE('',#622,#136);
#107=LINE('',#626,#137);
#108=LINE('',#631,#138);
#109=LINE('',#633,#139);
#110=LINE('',#635,#140);
#111=LINE('',#637,#141);
#112=LINE('',#639,#142);
#113=LINE('',#640,#143);
#114=LINE('',#643,#144);
#115=LINE('',#645,#145);
#116=LINE('',#646,#146);
#117=LINE('',#649,#147);
#118=LINE('',#650,#148);
#119=LINE('',#653,#149);
#120=LINE('',#654,#150);
#121=LINE('',#660,#151);
#122=LINE('',#667,#152);
#123=LINE('',#671,#153);
#124=LINE('',#672,#154);
#125=LINE('',#675,#155);
#126=LINE('',#676,#156);
#127=LINE('',#678,#157);
#128=VECTOR('',#456,10.65);
#129=VECTOR('',#461,11.);
#130=VECTOR('',#470,10.775);
#131=VECTOR('',#481,10.775);
#132=VECTOR('',#490,11.);
#133=VECTOR('',#499,9.07937136880564);
#134=VECTOR('',#502,8.95437136880563);
#135=VECTOR('',#509,9.07937136880563);
#136=VECTOR('',#512,8.15);
#137=VECTOR('',#517,7.9);
#138=VECTOR('',#522,10.);
#139=VECTOR('',#523,10.);
#140=VECTOR('',#524,10.);
#141=VECTOR('',#525,10.);
#142=VECTOR('',#526,10.);
#143=VECTOR('',#527,10.);
#144=VECTOR('',#530,1000.);
#145=VECTOR('',#531,1000.);
#146=VECTOR('',#532,1000.);
#147=VECTOR('',#535,1000.);
#148=VECTOR('',#536,1000.);
#149=VECTOR('',#539,1000.);
#150=VECTOR('',#540,1000.);
#151=VECTOR('',#547,7.5);
#152=VECTOR('',#556,7.342);
#153=VECTOR('',#561,1000.);
#154=VECTOR('',#562,1000.);
#155=VECTOR('',#565,1000.);
#156=VECTOR('',#566,1000.);
#157=VECTOR('',#569,1000.);
#158=CIRCLE('',#406,10.9);
#159=CIRCLE('',#407,10.4);
#160=CIRCLE('',#409,10.9);
#161=CIRCLE('',#411,8.4);
#162=CIRCLE('',#413,10.65);
#163=CIRCLE('',#415,9.20437136880564);
#164=CIRCLE('',#417,10.65);
#165=CIRCLE('',#418,10.9);
#166=CIRCLE('',#420,9.20437136880563);
#167=CIRCLE('',#422,10.9);
#168=CIRCLE('',#424,8.95437136880563);
#169=CIRCLE('',#425,8.95437136880563);
#170=CIRCLE('',#427,8.95437136880563);
#171=CIRCLE('',#428,8.95437136880563);
#172=CIRCLE('',#431,7.9);
#173=CIRCLE('',#433,7.9);
#174=CIRCLE('',#439,7.5);
#175=CIRCLE('',#441,7.5);
#176=CIRCLE('',#443,7.342);
#177=CIRCLE('',#445,7.342);
#178=VERTEX_POINT('',#574);
#179=VERTEX_POINT('',#576);
#180=VERTEX_POINT('',#580);
#181=VERTEX_POINT('',#584);
#182=VERTEX_POINT('',#587);
#183=VERTEX_POINT('',#591);
#184=VERTEX_POINT('',#594);
#185=VERTEX_POINT('',#596);
#186=VERTEX_POINT('',#600);
#187=VERTEX_POINT('',#603);
#188=VERTEX_POINT('',#607);
#189=VERTEX_POINT('',#608);
#190=VERTEX_POINT('',#613);
#191=VERTEX_POINT('',#615);
#192=VERTEX_POINT('',#621);
#193=VERTEX_POINT('',#625);
#194=VERTEX_POINT('',#629);
#195=VERTEX_POINT('',#630);
#196=VERTEX_POINT('',#632);
#197=VERTEX_POINT('',#634);
#198=VERTEX_POINT('',#636);
#199=VERTEX_POINT('',#638);
#200=VERTEX_POINT('',#642);
#201=VERTEX_POINT('',#644);
#202=VERTEX_POINT('',#648);
#203=VERTEX_POINT('',#652);
#204=VERTEX_POINT('',#656);
#205=VERTEX_POINT('',#659);
#206=VERTEX_POINT('',#663);
#207=VERTEX_POINT('',#666);
#208=VERTEX_POINT('',#670);
#209=VERTEX_POINT('',#674);
#210=EDGE_CURVE('',#178,#178,#158,.T.);
#211=EDGE_CURVE('',#178,#179,#98,.T.);
#212=EDGE_CURVE('',#179,#179,#159,.T.);
#213=EDGE_CURVE('',#178,#180,#99,.T.);
#214=EDGE_CURVE('',#180,#180,#160,.T.);
#215=EDGE_CURVE('',#181,#181,#161,.T.);
#216=EDGE_CURVE('',#180,#182,#100,.T.);
#217=EDGE_CURVE('',#182,#182,#162,.T.);
#218=EDGE_CURVE('',#183,#183,#163,.T.);
#219=EDGE_CURVE('',#184,#184,#164,.T.);
#220=EDGE_CURVE('',#184,#185,#101,.T.);
#221=EDGE_CURVE('',#185,#185,#165,.T.);
#222=EDGE_CURVE('',#186,#186,#166,.T.);
#223=EDGE_CURVE('',#185,#187,#102,.T.);
#224=EDGE_CURVE('',#187,#187,#167,.T.);
#225=EDGE_CURVE('',#188,#189,#168,.T.);
#226=EDGE_CURVE('',#189,#188,#169,.T.);
#227=EDGE_CURVE('',#188,#183,#103,.T.);
#228=EDGE_CURVE('',#189,#190,#104,.T.);
#229=EDGE_CURVE('',#191,#190,#170,.T.);
#230=EDGE_CURVE('',#190,#191,#171,.T.);
#231=EDGE_CURVE('',#186,#191,#105,.T.);
#232=EDGE_CURVE('',#181,#192,#106,.T.);
#233=EDGE_CURVE('',#192,#192,#172,.T.);
#234=EDGE_CURVE('',#192,#193,#107,.T.);
#235=EDGE_CURVE('',#193,#193,#173,.T.);
#236=EDGE_CURVE('',#194,#195,#108,.T.);
#237=EDGE_CURVE('',#196,#194,#109,.T.);
#238=EDGE_CURVE('',#197,#196,#110,.T.);
#239=EDGE_CURVE('',#198,#197,#111,.T.);
#240=EDGE_CURVE('',#199,#198,#112,.T.);
#241=EDGE_CURVE('',#195,#199,#113,.T.);
#242=EDGE_CURVE('',#200,#198,#114,.T.);
#243=EDGE_CURVE('',#201,#200,#115,.T.);
#244=EDGE_CURVE('',#201,#199,#116,.T.);
#245=EDGE_CURVE('',#202,#197,#117,.T.);
#246=EDGE_CURVE('',#200,#202,#118,.T.);
#247=EDGE_CURVE('',#203,#196,#119,.T.);
#248=EDGE_CURVE('',#202,#203,#120,.T.);
#249=EDGE_CURVE('',#204,#204,#174,.T.);
#250=EDGE_CURVE('',#204,#205,#121,.T.);
#251=EDGE_CURVE('',#205,#205,#175,.T.);
#252=EDGE_CURVE('',#206,#206,#176,.T.);
#253=EDGE_CURVE('',#206,#207,#122,.T.);
#254=EDGE_CURVE('',#207,#207,#177,.T.);
#255=EDGE_CURVE('',#208,#194,#123,.T.);
#256=EDGE_CURVE('',#203,#208,#124,.T.);
#257=EDGE_CURVE('',#209,#195,#125,.T.);
#258=EDGE_CURVE('',#208,#209,#126,.T.);
#259=EDGE_CURVE('',#209,#201,#127,.T.);
#260=ORIENTED_EDGE('',*,*,#210,.T.);
#261=ORIENTED_EDGE('',*,*,#211,.T.);
#262=ORIENTED_EDGE('',*,*,#212,.T.);
#263=ORIENTED_EDGE('',*,*,#211,.F.);
#264=ORIENTED_EDGE('',*,*,#210,.F.);
#265=ORIENTED_EDGE('',*,*,#213,.T.);
#266=ORIENTED_EDGE('',*,*,#214,.F.);
#267=ORIENTED_EDGE('',*,*,#213,.F.);
#268=ORIENTED_EDGE('',*,*,#212,.F.);
#269=ORIENTED_EDGE('',*,*,#215,.F.);
#270=ORIENTED_EDGE('',*,*,#214,.T.);
#271=ORIENTED_EDGE('',*,*,#216,.T.);
#272=ORIENTED_EDGE('',*,*,#217,.T.);
#273=ORIENTED_EDGE('',*,*,#216,.F.);
#274=ORIENTED_EDGE('',*,*,#217,.F.);
#275=ORIENTED_EDGE('',*,*,#218,.F.);
#276=ORIENTED_EDGE('',*,*,#219,.T.);
#277=ORIENTED_EDGE('',*,*,#220,.T.);
#278=ORIENTED_EDGE('',*,*,#221,.T.);
#279=ORIENTED_EDGE('',*,*,#220,.F.);
#280=ORIENTED_EDGE('',*,*,#219,.F.);
#281=ORIENTED_EDGE('',*,*,#222,.F.);
#282=ORIENTED_EDGE('',*,*,#221,.F.);
#283=ORIENTED_EDGE('',*,*,#223,.T.);
#284=ORIENTED_EDGE('',*,*,#224,.T.);
#285=ORIENTED_EDGE('',*,*,#223,.F.);
#286=ORIENTED_EDGE('',*,*,#225,.T.);
#287=ORIENTED_EDGE('',*,*,#226,.T.);
#288=ORIENTED_EDGE('',*,*,#227,.T.);
#289=ORIENTED_EDGE('',*,*,#218,.T.);
#290=ORIENTED_EDGE('',*,*,#227,.F.);
#291=ORIENTED_EDGE('',*,*,#225,.F.);
#292=ORIENTED_EDGE('',*,*,#226,.F.);
#293=ORIENTED_EDGE('',*,*,#228,.T.);
#294=ORIENTED_EDGE('',*,*,#229,.F.);
#295=ORIENTED_EDGE('',*,*,#230,.F.);
#296=ORIENTED_EDGE('',*,*,#228,.F.);
#297=ORIENTED_EDGE('',*,*,#222,.T.);
#298=ORIENTED_EDGE('',*,*,#231,.T.);
#299=ORIENTED_EDGE('',*,*,#229,.T.);
#300=ORIENTED_EDGE('',*,*,#230,.T.);
#301=ORIENTED_EDGE('',*,*,#231,.F.);
#302=ORIENTED_EDGE('',*,*,#215,.T.);
#303=ORIENTED_EDGE('',*,*,#232,.T.);
#304=ORIENTED_EDGE('',*,*,#233,.T.);
#305=ORIENTED_EDGE('',*,*,#232,.F.);
#306=ORIENTED_EDGE('',*,*,#233,.F.);
#307=ORIENTED_EDGE('',*,*,#234,.T.);
#308=ORIENTED_EDGE('',*,*,#235,.T.);
#309=ORIENTED_EDGE('',*,*,#234,.F.);
#310=ORIENTED_EDGE('',*,*,#236,.F.);
#311=ORIENTED_EDGE('',*,*,#237,.F.);
#312=ORIENTED_EDGE('',*,*,#238,.F.);
#313=ORIENTED_EDGE('',*,*,#239,.F.);
#314=ORIENTED_EDGE('',*,*,#240,.F.);
#315=ORIENTED_EDGE('',*,*,#241,.F.);
#316=ORIENTED_EDGE('',*,*,#224,.F.);
#317=ORIENTED_EDGE('',*,*,#240,.T.);
#318=ORIENTED_EDGE('',*,*,#242,.F.);
#319=ORIENTED_EDGE('',*,*,#243,.F.);
#320=ORIENTED_EDGE('',*,*,#244,.T.);
#321=ORIENTED_EDGE('',*,*,#239,.T.);
#322=ORIENTED_EDGE('',*,*,#245,.F.);
#323=ORIENTED_EDGE('',*,*,#246,.F.);
#324=ORIENTED_EDGE('',*,*,#242,.T.);
#325=ORIENTED_EDGE('',*,*,#238,.T.);
#326=ORIENTED_EDGE('',*,*,#247,.F.);
#327=ORIENTED_EDGE('',*,*,#248,.F.);
#328=ORIENTED_EDGE('',*,*,#245,.T.);
#329=ORIENTED_EDGE('',*,*,#235,.F.);
#330=ORIENTED_EDGE('',*,*,#249,.F.);
#331=ORIENTED_EDGE('',*,*,#249,.T.);
#332=ORIENTED_EDGE('',*,*,#250,.T.);
#333=ORIENTED_EDGE('',*,*,#251,.T.);
#334=ORIENTED_EDGE('',*,*,#250,.F.);
#335=ORIENTED_EDGE('',*,*,#251,.F.);
#336=ORIENTED_EDGE('',*,*,#252,.F.);
#337=ORIENTED_EDGE('',*,*,#252,.T.);
#338=ORIENTED_EDGE('',*,*,#253,.T.);
#339=ORIENTED_EDGE('',*,*,#254,.F.);
#340=ORIENTED_EDGE('',*,*,#253,.F.);
#341=ORIENTED_EDGE('',*,*,#237,.T.);
#342=ORIENTED_EDGE('',*,*,#255,.F.);
#343=ORIENTED_EDGE('',*,*,#256,.F.);
#344=ORIENTED_EDGE('',*,*,#247,.T.);
#345=ORIENTED_EDGE('',*,*,#236,.T.);
#346=ORIENTED_EDGE('',*,*,#257,.F.);
#347=ORIENTED_EDGE('',*,*,#258,.F.);
#348=ORIENTED_EDGE('',*,*,#255,.T.);
#349=ORIENTED_EDGE('',*,*,#241,.T.);
#350=ORIENTED_EDGE('',*,*,#244,.F.);
#351=ORIENTED_EDGE('',*,*,#259,.F.);
#352=ORIENTED_EDGE('',*,*,#257,.T.);
#353=ORIENTED_EDGE('',*,*,#256,.T.);
#354=ORIENTED_EDGE('',*,*,#258,.T.);
#355=ORIENTED_EDGE('',*,*,#259,.T.);
#356=ORIENTED_EDGE('',*,*,#243,.T.);
#357=ORIENTED_EDGE('',*,*,#246,.T.);
#358=ORIENTED_EDGE('',*,*,#248,.T.);
#359=ORIENTED_EDGE('',*,*,#254,.T.);
#360=CONICAL_SURFACE('',#405,10.65,0.785398163397448);
#361=CONICAL_SURFACE('',#412,10.775,0.785398163397448);
#362=CONICAL_SURFACE('',#416,10.775,0.785398163397448);
#363=CONICAL_SURFACE('',#423,9.07937136880564,0.785398163397462);
#364=CONICAL_SURFACE('',#429,9.07937136880563,0.785398163397451);
#365=CONICAL_SURFACE('',#430,8.15,0.785398163397448);
#366=ADVANCED_FACE('',(#41),#360,.T.);
#367=ADVANCED_FACE('',(#42),#35,.T.);
#368=ADVANCED_FACE('',(#43,#15),#22,.F.);
#369=ADVANCED_FACE('',(#44),#361,.T.);
#370=ADVANCED_FACE('',(#45,#16),#23,.F.);
#371=ADVANCED_FACE('',(#46),#362,.T.);
#372=ADVANCED_FACE('',(#47,#17),#24,.F.);
#373=ADVANCED_FACE('',(#48),#36,.T.);
#374=ADVANCED_FACE('',(#49),#363,.T.);
#375=ADVANCED_FACE('',(#50),#37,.T.);
#376=ADVANCED_FACE('',(#51),#364,.T.);
#377=ADVANCED_FACE('',(#52),#365,.F.);
#378=ADVANCED_FACE('',(#53),#38,.F.);
#379=ADVANCED_FACE('',(#54,#18),#25,.T.);
#380=ADVANCED_FACE('',(#55),#26,.F.);
#381=ADVANCED_FACE('',(#56),#27,.F.);
#382=ADVANCED_FACE('',(#57),#28,.F.);
#383=ADVANCED_FACE('',(#58,#19),#29,.T.);
#384=ADVANCED_FACE('',(#59),#39,.F.);
#385=ADVANCED_FACE('',(#60,#20),#30,.T.);
#386=ADVANCED_FACE('',(#61),#40,.F.);
#387=ADVANCED_FACE('',(#62),#31,.F.);
#388=ADVANCED_FACE('',(#63),#32,.F.);
#389=ADVANCED_FACE('',(#64),#33,.F.);
#390=ADVANCED_FACE('',(#65,#21),#34,.T.);
#391=CLOSED_SHELL('',(#366,#367,#368,#369,#370,#371,#372,#373,#374,#375,
#376,#377,#378,#379,#380,#381,#382,#383,#384,#385,#386,#387,#388,#389,#390));
#392=DERIVED_UNIT_ELEMENT(#394,1.);
#393=DERIVED_UNIT_ELEMENT(#685,-3.);
#394=(
MASS_UNIT()
NAMED_UNIT(*)
SI_UNIT(.KILO.,.GRAM.)
);
#395=DERIVED_UNIT((#392,#393));
#396=MEASURE_REPRESENTATION_ITEM('density measure',
POSITIVE_RATIO_MEASURE(7850.),#395);
#397=PROPERTY_DEFINITION_REPRESENTATION(#402,#399);
#398=PROPERTY_DEFINITION_REPRESENTATION(#403,#400);
#399=REPRESENTATION('material name',(#401),#682);
#400=REPRESENTATION('density',(#396),#682);
#401=DESCRIPTIVE_REPRESENTATION_ITEM('Steel','Steel');
#402=PROPERTY_DEFINITION('material property','material name',#692);
#403=PROPERTY_DEFINITION('material property','density of part',#692);
#404=AXIS2_PLACEMENT_3D('',#572,#450,#451);
#405=AXIS2_PLACEMENT_3D('',#573,#452,#453);
#406=AXIS2_PLACEMENT_3D('',#575,#454,#455);
#407=AXIS2_PLACEMENT_3D('',#578,#457,#458);
#408=AXIS2_PLACEMENT_3D('',#579,#459,#460);
#409=AXIS2_PLACEMENT_3D('',#582,#462,#463);
#410=AXIS2_PLACEMENT_3D('',#583,#464,#465);
#411=AXIS2_PLACEMENT_3D('',#585,#466,#467);
#412=AXIS2_PLACEMENT_3D('',#586,#468,#469);
#413=AXIS2_PLACEMENT_3D('',#589,#471,#472);
#414=AXIS2_PLACEMENT_3D('',#590,#473,#474);
#415=AXIS2_PLACEMENT_3D('',#592,#475,#476);
#416=AXIS2_PLACEMENT_3D('',#593,#477,#478);
#417=AXIS2_PLACEMENT_3D('',#595,#479,#480);
#418=AXIS2_PLACEMENT_3D('',#598,#482,#483);
#419=AXIS2_PLACEMENT_3D('',#599,#484,#485);
#420=AXIS2_PLACEMENT_3D('',#601,#486,#487);
#421=AXIS2_PLACEMENT_3D('',#602,#488,#489);
#422=AXIS2_PLACEMENT_3D('',#605,#491,#492);
#423=AXIS2_PLACEMENT_3D('',#606,#493,#494);
#424=AXIS2_PLACEMENT_3D('',#609,#495,#496);
#425=AXIS2_PLACEMENT_3D('',#610,#497,#498);
#426=AXIS2_PLACEMENT_3D('',#612,#500,#501);
#427=AXIS2_PLACEMENT_3D('',#616,#503,#504);
#428=AXIS2_PLACEMENT_3D('',#617,#505,#506);
#429=AXIS2_PLACEMENT_3D('',#618,#507,#508);
#430=AXIS2_PLACEMENT_3D('',#620,#510,#511);
#431=AXIS2_PLACEMENT_3D('',#623,#513,#514);
#432=AXIS2_PLACEMENT_3D('',#624,#515,#516);
#433=AXIS2_PLACEMENT_3D('',#627,#518,#519);
#434=AXIS2_PLACEMENT_3D('',#628,#520,#521);
#435=AXIS2_PLACEMENT_3D('',#641,#528,#529);
#436=AXIS2_PLACEMENT_3D('',#647,#533,#534);
#437=AXIS2_PLACEMENT_3D('',#651,#537,#538);
#438=AXIS2_PLACEMENT_3D('',#655,#541,#542);
#439=AXIS2_PLACEMENT_3D('',#657,#543,#544);
#440=AXIS2_PLACEMENT_3D('',#658,#545,#546);
#441=AXIS2_PLACEMENT_3D('',#661,#548,#549);
#442=AXIS2_PLACEMENT_3D('',#662,#550,#551);
#443=AXIS2_PLACEMENT_3D('',#664,#552,#553);
#444=AXIS2_PLACEMENT_3D('',#665,#554,#555);
#445=AXIS2_PLACEMENT_3D('',#668,#557,#558);
#446=AXIS2_PLACEMENT_3D('',#669,#559,#560);
#447=AXIS2_PLACEMENT_3D('',#673,#563,#564);
#448=AXIS2_PLACEMENT_3D('',#677,#567,#568);
#449=AXIS2_PLACEMENT_3D('',#679,#570,#571);
#450=DIRECTION('axis',(0.,0.,1.));
#451=DIRECTION('refdir',(1.,0.,0.));
#452=DIRECTION('center_axis',(0.,0.,1.));
#453=DIRECTION('ref_axis',(-6.98386975591388E-21,1.,0.));
#454=DIRECTION('center_axis',(0.,0.,-1.));
#455=DIRECTION('ref_axis',(-6.98386975591387E-21,1.,0.));
#456=DIRECTION('',(-8.66005439652127E-17,0.707106781186548,-0.707106781186548));
#457=DIRECTION('center_axis',(0.,0.,1.));
#458=DIRECTION('ref_axis',(-6.98386975591388E-21,1.,0.));
#459=DIRECTION('center_axis',(0.,0.,1.));
#460=DIRECTION('ref_axis',(-6.98386975591387E-21,1.,0.));
#461=DIRECTION('',(0.,0.,1.));
#462=DIRECTION('center_axis',(0.,3.87682634810078E-37,1.));
#463=DIRECTION('ref_axis',(-6.98386975591387E-21,1.,0.));
#464=DIRECTION('center_axis',(0.,0.,1.));
#465=DIRECTION('ref_axis',(1.,0.,0.));
#466=DIRECTION('center_axis',(0.,0.,-1.));
#467=DIRECTION('ref_axis',(-6.98386947867857E-21,1.,0.));
#468=DIRECTION('center_axis',(0.,0.,-1.));
#469=DIRECTION('ref_axis',(-6.98386975591387E-21,1.,-1.91592578224006E-37));
#470=DIRECTION('',(8.6590667281886E-17,0.707106781186547,0.707106781186547));
#471=DIRECTION('center_axis',(0.,-3.87682634810078E-37,-1.));
#472=DIRECTION('ref_axis',(-6.98386975591387E-21,1.,-3.87682634810078E-37));
#473=DIRECTION('center_axis',(0.,-3.87682634810078E-37,-1.));
#474=DIRECTION('ref_axis',(-1.,0.,0.));
#475=DIRECTION('center_axis',(0.,3.87682634810078E-37,1.));
#476=DIRECTION('ref_axis',(-1.,-1.25149449850944E-37,4.85182684632459E-74));
#477=DIRECTION('center_axis',(0.,0.,1.));
#478=DIRECTION('ref_axis',(-6.98386975591387E-21,1.,-1.91592578224006E-37));
#479=DIRECTION('center_axis',(0.,3.87682634810078E-37,1.));
#480=DIRECTION('ref_axis',(-6.98386975591387E-21,1.,-3.87682634810078E-37));
#481=DIRECTION('',(-8.6590667281886E-17,-0.707106781186547,0.707106781186547));
#482=DIRECTION('center_axis',(0.,-3.87682634810078E-37,-1.));
#483=DIRECTION('ref_axis',(-6.98386975591387E-21,1.,0.));
#484=DIRECTION('center_axis',(0.,3.87682634810078E-37,1.));
#485=DIRECTION('ref_axis',(1.,0.,0.));
#486=DIRECTION('center_axis',(0.,-3.87682634810078E-37,-1.));
#487=DIRECTION('ref_axis',(-1.,-1.25149449850944E-37,4.85182684632459E-74));
#488=DIRECTION('center_axis',(0.,0.,1.));
#489=DIRECTION('ref_axis',(-6.98386975591387E-21,1.,0.));
#490=DIRECTION('',(0.,0.,1.));
#491=DIRECTION('center_axis',(0.,1.54035627287498E-33,-1.));
#492=DIRECTION('ref_axis',(-6.98386975591387E-21,1.,0.));
#493=DIRECTION('center_axis',(0.,0.,-1.));
#494=DIRECTION('ref_axis',(-1.,-1.25149449850944E-37,2.45931212066872E-74));
#495=DIRECTION('center_axis',(0.,-3.87682634810078E-37,-1.));
#496=DIRECTION('ref_axis',(-1.,-1.25149449850944E-37,0.));
#497=DIRECTION('center_axis',(0.,-3.87682634810078E-37,-1.));
#498=DIRECTION('ref_axis',(-1.,-1.25149449850944E-37,0.));
#499=DIRECTION('',(0.707106781186557,8.65956056235505E-17,-0.707106781186538));
#500=DIRECTION('center_axis',(0.,3.87682634810078E-37,1.));
#501=DIRECTION('ref_axis',(1.,1.25149449850944E-37,0.));
#502=DIRECTION('',(0.,3.87682634810078E-37,1.));
#503=DIRECTION('center_axis',(0.,3.87682634810078E-37,1.));
#504=DIRECTION('ref_axis',(-1.,-1.25149449850944E-37,0.));
#505=DIRECTION('center_axis',(0.,3.87682634810078E-37,1.));
#506=DIRECTION('ref_axis',(-1.,-1.25149449850944E-37,0.));
#507=DIRECTION('center_axis',(0.,0.,1.));
#508=DIRECTION('ref_axis',(-1.,-1.25149449850944E-37,2.45931212066872E-74));
#509=DIRECTION('',(-0.707106781186549,-8.65956056235495E-17,-0.707106781186546));
#510=DIRECTION('center_axis',(0.,0.,-1.));
#511=DIRECTION('ref_axis',(-6.98386947867857E-21,1.,0.));
#512=DIRECTION('',(8.6590667282082E-17,0.707106781186548,0.707106781186548));
#513=DIRECTION('center_axis',(0.,0.,1.));
#514=DIRECTION('ref_axis',(-6.98386947867857E-21,1.,0.));
#515=DIRECTION('center_axis',(0.,0.,1.));
#516=DIRECTION('ref_axis',(-6.98386947867857E-21,1.,0.));
#517=DIRECTION('',(0.,0.,1.));
#518=DIRECTION('center_axis',(0.,3.87682634810292E-37,1.));
#519=DIRECTION('ref_axis',(-6.98386947867857E-21,1.,-4.7477838728799E-66));
#520=DIRECTION('center_axis',(0.,1.54035627287498E-33,-1.));
#521=DIRECTION('ref_axis',(-6.98386975591387E-21,1.,1.5407439554944E-33));
#522=DIRECTION('',(-0.866025403784438,-0.5,-7.7017813643749E-34));
#523=DIRECTION('',(-0.866025403784439,0.5,7.70178136437489E-34));
#524=DIRECTION('',(0.,1.,1.54035627287498E-33));
#525=DIRECTION('',(0.866025403784439,0.5,7.70178136437489E-34));
#526=DIRECTION('',(0.866025403784439,-0.5,-7.70178136437489E-34));
#527=DIRECTION('',(0.,-1.,-1.54035627287498E-33));
#528=DIRECTION('center_axis',(0.5,0.866025403784439,0.));
#529=DIRECTION('ref_axis',(-0.866025403784439,0.5,0.));
#530=DIRECTION('',(0.,0.,-1.));
#531=DIRECTION('',(0.866025403784439,-0.5,0.));
#532=DIRECTION('',(0.,0.,-1.));
#533=DIRECTION('center_axis',(-0.5,0.866025403784439,0.));
#534=DIRECTION('ref_axis',(-0.866025403784439,-0.5,0.));
#535=DIRECTION('',(0.,0.,-1.));
#536=DIRECTION('',(0.866025403784439,0.5,0.));
#537=DIRECTION('center_axis',(-1.,0.,0.));
#538=DIRECTION('ref_axis',(0.,0.,1.));
#539=DIRECTION('',(0.,0.,-1.));
#540=DIRECTION('',(0.,1.,0.));
#541=DIRECTION('center_axis',(0.,-3.87682634810292E-37,-1.));
#542=DIRECTION('ref_axis',(-6.98386947867857E-21,1.,-4.7477838728799E-66));
#543=DIRECTION('center_axis',(0.,-3.87682634810292E-37,-1.));
#544=DIRECTION('ref_axis',(-6.98386947867857E-21,1.,0.));
#545=DIRECTION('center_axis',(0.,0.,1.));
#546=DIRECTION('ref_axis',(-6.98386947867857E-21,1.,0.));
#547=DIRECTION('',(0.,0.,1.));
#548=DIRECTION('center_axis',(0.,3.87682634810292E-37,1.));
#549=DIRECTION('ref_axis',(-6.98386947867857E-21,1.,-4.7477838728799E-66));
#550=DIRECTION('center_axis',(0.,-3.87682634810292E-37,-1.));
#551=DIRECTION('ref_axis',(-6.98386947867857E-21,1.,-4.7477838728799E-66));
#552=DIRECTION('center_axis',(0.,-3.87682634810292E-37,-1.));
#553=DIRECTION('ref_axis',(-6.98386947867857E-21,1.,0.));
#554=DIRECTION('center_axis',(0.,0.,1.));
#555=DIRECTION('ref_axis',(-6.98386947867857E-21,1.,0.));
#556=DIRECTION('',(0.,0.,1.));
#557=DIRECTION('center_axis',(0.,0.,-1.));
#558=DIRECTION('ref_axis',(-6.98386947867857E-21,1.,0.));
#559=DIRECTION('center_axis',(-0.5,-0.866025403784439,0.));
#560=DIRECTION('ref_axis',(0.866025403784439,-0.5,0.));
#561=DIRECTION('',(0.,0.,-1.));
#562=DIRECTION('',(-0.866025403784439,0.499999999999999,0.));
#563=DIRECTION('center_axis',(0.5,-0.866025403784438,0.));
#564=DIRECTION('ref_axis',(0.866025403784438,0.5,0.));
#565=DIRECTION('',(0.,0.,-1.));
#566=DIRECTION('',(-0.866025403784438,-0.5,0.));
#567=DIRECTION('center_axis',(1.,0.,0.));
#568=DIRECTION('ref_axis',(0.,0.,-1.));
#569=DIRECTION('',(0.,-1.,0.));
#570=DIRECTION('center_axis',(0.,0.,1.));
#571=DIRECTION('ref_axis',(1.,0.,0.));
#572=CARTESIAN_POINT('',(0.,0.,0.));
#573=CARTESIAN_POINT('Origin',(2.13755284583783E-6,-0.0228511630056843,
19.05));
#574=CARTESIAN_POINT('',(2.13755284450304E-6,-10.9228511630057,19.3));
#575=CARTESIAN_POINT('Origin',(2.13755284583783E-6,-0.0228511630056843,
19.3));
#576=CARTESIAN_POINT('',(2.13755284711154E-6,-10.4228511630057,18.8));
#577=CARTESIAN_POINT('',(2.13755284714215E-6,-10.6728511630057,19.05));
#578=CARTESIAN_POINT('Origin',(2.13755284583783E-6,-0.0228511630056843,
18.8));
#579=CARTESIAN_POINT('Origin',(2.13755284583783E-6,-0.0228511630056843,
18.8));
#580=CARTESIAN_POINT('',(2.13755284717277E-6,-10.9228511630057,22.05));
#581=CARTESIAN_POINT('',(2.13755284717277E-6,-10.9228511630057,18.8));
#582=CARTESIAN_POINT('Origin',(2.13755284583783E-6,-0.0228511630056843,
22.05));
#583=CARTESIAN_POINT('Origin',(0.,0.,18.8));
#584=CARTESIAN_POINT('',(2.13755284480919E-6,-8.42285116300569,18.8));
#585=CARTESIAN_POINT('Origin',(2.13755284583783E-6,-0.0228511630056843,
18.8));
#586=CARTESIAN_POINT('Origin',(2.13755284583783E-6,-0.0228511630056843,
22.175));
#587=CARTESIAN_POINT('',(2.13755284453366E-6,-10.6728511630057,22.3));
#588=CARTESIAN_POINT('',(2.13755284451835E-6,-10.7978511630057,22.175));
#589=CARTESIAN_POINT('Origin',(2.13755284583783E-6,-0.0228511630056843,
22.3));
#590=CARTESIAN_POINT('Origin',(11.3789641020805,-0.0228511630056843,22.3));
#591=CARTESIAN_POINT('',(9.20437350635848,-0.0228511630056832,22.3));
#592=CARTESIAN_POINT('Origin',(2.13755284583783E-6,-0.0228511630056843,
22.3));
#593=CARTESIAN_POINT('Origin',(2.13755284583783E-6,-0.0228511630056843,
25.925));
#594=CARTESIAN_POINT('',(2.13755284714215E-6,-10.6728511630057,25.8));
#595=CARTESIAN_POINT('Origin',(2.13755284583783E-6,-0.0228511630056843,
25.8));
#596=CARTESIAN_POINT('',(2.13755284450304E-6,-10.9228511630057,26.05));
#597=CARTESIAN_POINT('',(2.13755284451835E-6,-10.7978511630057,25.925));
#598=CARTESIAN_POINT('Origin',(2.13755284583783E-6,-0.0228511630056843,
26.05));
#599=CARTESIAN_POINT('Origin',(8.95437350635848,-0.0228511630056843,25.8));
#600=CARTESIAN_POINT('',(9.20437350635848,-0.0228511630056855,25.8));
#601=CARTESIAN_POINT('Origin',(2.13755284583783E-6,-0.0228511630056843,
25.8));
#602=CARTESIAN_POINT('Origin',(2.13755284583783E-6,-0.0228511630056843,
18.8));
#603=CARTESIAN_POINT('',(2.13755284450304E-6,-10.9228511630057,36.2));
#604=CARTESIAN_POINT('',(2.13755284717277E-6,-10.9228511630057,18.8));
#605=CARTESIAN_POINT('Origin',(2.13755284583783E-6,-0.0228511630056843,
36.2));
#606=CARTESIAN_POINT('Origin',(2.13755284583783E-6,-0.0228511630056843,
22.425));
#607=CARTESIAN_POINT('',(8.95437350635848,-0.0228511630056854,22.55));
#608=CARTESIAN_POINT('',(-8.95436923125279,-0.0228511630056854,22.55));
#609=CARTESIAN_POINT('Origin',(2.13755284583783E-6,-0.0228511630056843,
22.55));
#610=CARTESIAN_POINT('Origin',(2.13755284583783E-6,-0.0228511630056843,
22.55));
#611=CARTESIAN_POINT('',(9.07937350635848,-0.0228511630056832,22.425));
#612=CARTESIAN_POINT('Origin',(2.13755284583783E-6,-0.0228511630056843,
24.05));
#613=CARTESIAN_POINT('',(-8.95436923125279,-0.0228511630056854,25.55));
#614=CARTESIAN_POINT('',(-8.95436923125279,-0.0228511630056854,24.05));
#615=CARTESIAN_POINT('',(8.95437350635848,-0.0228511630056832,25.55));
#616=CARTESIAN_POINT('Origin',(2.13755284583783E-6,-0.0228511630056843,
25.55));
#617=CARTESIAN_POINT('Origin',(2.13755284583783E-6,-0.0228511630056843,
25.55));
#618=CARTESIAN_POINT('Origin',(2.13755284583783E-6,-0.0228511630056843,
25.675));
#619=CARTESIAN_POINT('',(9.07937350635848,-0.0228511630056832,25.675));
#620=CARTESIAN_POINT('Origin',(2.13755284583783E-6,-0.0228511630056843,
19.05));
#621=CARTESIAN_POINT('',(2.13755284680536E-6,-7.92285116300569,19.3));
#622=CARTESIAN_POINT('',(2.1375528448398E-6,-8.17285116300569,19.05));
#623=CARTESIAN_POINT('Origin',(2.13755284583783E-6,-0.0228511630056843,
19.3));
#624=CARTESIAN_POINT('Origin',(2.13755284583783E-6,-0.0228511630056843,
18.8));
#625=CARTESIAN_POINT('',(2.13755284583783E-6,-7.92285116300569,36.2));
#626=CARTESIAN_POINT('',(2.13755284680536E-6,-7.92285116300569,18.8));
#627=CARTESIAN_POINT('Origin',(2.13755284583783E-6,-0.0228511630056843,
36.2));
#628=CARTESIAN_POINT('Origin',(8.88178419700125E-15,-1.47017814589034E-15,
36.2));
#629=CARTESIAN_POINT('',(0.,12.8316097327394,36.2));
#630=CARTESIAN_POINT('',(-11.1125,6.41580486636971,36.2));
#631=CARTESIAN_POINT('',(-2.778125,11.227658516147,36.2));
#632=CARTESIAN_POINT('',(11.1125,6.41580486636972,36.2));
#633=CARTESIAN_POINT('',(8.334375,8.01975608296215,36.2));
#634=CARTESIAN_POINT('',(11.1125,-6.41580486636972,36.2));
#635=CARTESIAN_POINT('',(11.1125,-3.20790243318486,36.2));
#636=CARTESIAN_POINT('',(0.,-12.8316097327394,36.2));
#637=CARTESIAN_POINT('',(2.778125,-11.227658516147,36.2));
#638=CARTESIAN_POINT('',(-11.1125,-6.41580486636972,36.2));
#639=CARTESIAN_POINT('',(-8.33437499999999,-8.01975608296215,36.2));
#640=CARTESIAN_POINT('',(-11.1125,3.20790243318486,36.2));
#641=CARTESIAN_POINT('Origin',(-11.1125,-6.41580486636972,76.2));
#642=CARTESIAN_POINT('',(3.06460142235722E-15,-12.8316097327394,76.2));
#643=CARTESIAN_POINT('',(3.06460142235722E-15,-12.8316097327394,76.2));
#644=CARTESIAN_POINT('',(-11.1125,-6.41580486636972,76.2));
#645=CARTESIAN_POINT('',(-11.1125,-6.41580486636972,76.2));
#646=CARTESIAN_POINT('',(-11.1125,-6.41580486636972,76.2));
#647=CARTESIAN_POINT('Origin',(3.06460142235722E-15,-12.8316097327394,76.2));
#648=CARTESIAN_POINT('',(11.1125,-6.41580486636972,76.2));
#649=CARTESIAN_POINT('',(11.1125,-6.41580486636972,76.2));
#650=CARTESIAN_POINT('',(3.06460142235722E-15,-12.8316097327394,76.2));
#651=CARTESIAN_POINT('Origin',(11.1125,-6.41580486636972,76.2));
#652=CARTESIAN_POINT('',(11.1125,6.41580486636972,76.2));
#653=CARTESIAN_POINT('',(11.1125,6.41580486636972,76.2));
#654=CARTESIAN_POINT('',(11.1125,-6.41580486636972,76.2));
#655=CARTESIAN_POINT('Origin',(2.13755284583783E-6,-0.0228511630056843,
36.2));
#656=CARTESIAN_POINT('',(2.13755284583783E-6,-7.52285116300568,36.2));
#657=CARTESIAN_POINT('Origin',(2.13755284583783E-6,-0.0228511630056843,
36.2));
#658=CARTESIAN_POINT('Origin',(2.13755284583783E-6,-0.0228511630056843,
18.8));
#659=CARTESIAN_POINT('',(2.13755284583783E-6,-7.52285116300568,62.8));
#660=CARTESIAN_POINT('',(2.13755284675637E-6,-7.52285116300568,18.8));
#661=CARTESIAN_POINT('Origin',(2.13755284583783E-6,-0.0228511630056843,
62.8));
#662=CARTESIAN_POINT('Origin',(2.13755284583783E-6,-0.0228511630056843,
62.8));
#663=CARTESIAN_POINT('',(2.13755284583783E-6,-7.36485116300569,62.8));
#664=CARTESIAN_POINT('Origin',(2.13755284583783E-6,-0.0228511630056843,
62.8));
#665=CARTESIAN_POINT('Origin',(2.13755284583783E-6,-0.0228511630056843,
18.8));
#666=CARTESIAN_POINT('',(2.13755284583783E-6,-7.36485116300569,76.2));
#667=CARTESIAN_POINT('',(2.13755284673702E-6,-7.36485116300569,18.8));
#668=CARTESIAN_POINT('Origin',(2.13755284583783E-6,-0.0228511630056843,
76.2));
#669=CARTESIAN_POINT('Origin',(11.1125,6.41580486636972,76.2));
#670=CARTESIAN_POINT('',(-4.56635794924336E-15,12.8316097327394,76.2));
#671=CARTESIAN_POINT('',(-4.56635794924336E-15,12.8316097327394,76.2));
#672=CARTESIAN_POINT('',(11.1125,6.41580486636972,76.2));
#673=CARTESIAN_POINT('Origin',(-4.56635794924336E-15,12.8316097327394,76.2));
#674=CARTESIAN_POINT('',(-11.1125,6.41580486636971,76.2));
#675=CARTESIAN_POINT('',(-11.1125,6.41580486636971,76.2));
#676=CARTESIAN_POINT('',(-4.56635794924336E-15,12.8316097327394,76.2));
#677=CARTESIAN_POINT('Origin',(-11.1125,6.41580486636971,76.2));
#678=CARTESIAN_POINT('',(-11.1125,6.41580486636971,76.2));
#679=CARTESIAN_POINT('Origin',(0.,0.,76.2));
#680=UNCERTAINTY_MEASURE_WITH_UNIT(LENGTH_MEASURE(0.01),#684,
'DISTANCE_ACCURACY_VALUE',
'Maximum model space distance between geometric entities at asserted c
onnectivities');
#681=UNCERTAINTY_MEASURE_WITH_UNIT(LENGTH_MEASURE(0.01),#684,
'DISTANCE_ACCURACY_VALUE',
'Maximum model space distance between geometric entities at asserted c
onnectivities');
#682=(
GEOMETRIC_REPRESENTATION_CONTEXT(3)
GLOBAL_UNCERTAINTY_ASSIGNED_CONTEXT((#680))
GLOBAL_UNIT_ASSIGNED_CONTEXT((#684,#686,#687))
REPRESENTATION_CONTEXT('','3D')
);
#683=(
GEOMETRIC_REPRESENTATION_CONTEXT(3)
GLOBAL_UNCERTAINTY_ASSIGNED_CONTEXT((#681))
GLOBAL_UNIT_ASSIGNED_CONTEXT((#684,#686,#687))
REPRESENTATION_CONTEXT('','3D')
);
#684=(
LENGTH_UNIT()
NAMED_UNIT(*)
SI_UNIT(.MILLI.,.METRE.)
);
#685=(
LENGTH_UNIT()
NAMED_UNIT(*)
SI_UNIT($,.METRE.)
);
#686=(
NAMED_UNIT(*)
PLANE_ANGLE_UNIT()
SI_UNIT($,.RADIAN.)
);
#687=(
NAMED_UNIT(*)
SI_UNIT($,.STERADIAN.)
SOLID_ANGLE_UNIT()
);
#688=SHAPE_DEFINITION_REPRESENTATION(#689,#690);
#689=PRODUCT_DEFINITION_SHAPE('',$,#692);
#690=SHAPE_REPRESENTATION('',(#404),#682);
#691=PRODUCT_DEFINITION_CONTEXT('part definition',#696,'design');
#692=PRODUCT_DEFINITION('flow conditioner housing',
'flow conditioner housing',#693,#691);
#693=PRODUCT_DEFINITION_FORMATION('',$,#698);
#694=PRODUCT_RELATED_PRODUCT_CATEGORY('flow conditioner housing',
'flow conditioner housing',(#698));
#695=APPLICATION_PROTOCOL_DEFINITION('international standard',
'automotive_design',2009,#696);
#696=APPLICATION_CONTEXT(
'Core Data for Automotive Mechanical Design Process');
#697=PRODUCT_CONTEXT('part definition',#696,'mechanical');
#698=PRODUCT('flow conditioner housing','flow conditioner housing',$,(#697));
#699=PRESENTATION_STYLE_ASSIGNMENT((#701));
#700=PRESENTATION_STYLE_ASSIGNMENT((#702));
#701=SURFACE_STYLE_USAGE(.BOTH.,#703);
#702=SURFACE_STYLE_USAGE(.BOTH.,#704);
#703=SURFACE_SIDE_STYLE('',(#705));
#704=SURFACE_SIDE_STYLE('',(#706));
#705=SURFACE_STYLE_FILL_AREA(#707);
#706=SURFACE_STYLE_FILL_AREA(#708);
#707=FILL_AREA_STYLE('Brass - Matte',(#709));
#708=FILL_AREA_STYLE('Aluminum - Satin',(#710));
#709=FILL_AREA_STYLE_COLOUR('Brass - Matte',#711);
#710=FILL_AREA_STYLE_COLOUR('Aluminum - Satin',#712);
#711=COLOUR_RGB('Brass - Matte',0.952941176470588,0.796078431372549,0.486274509803922);
#712=COLOUR_RGB('Aluminum - Satin',0.96078431372549,0.96078431372549,0.964705882352941);
ENDSEC;
END-ISO-10303-21;
